{"hash":"d7ecfdcc7c22f82421c301a45f90fd678bc3a1ed","data":{"tag":{"title":"laravel","belongsTo":{"totalCount":4,"pageInfo":{"totalPages":2,"currentPage":1},"edges":[{"node":{"title":"Laravel Permission Sources","timeToRead":1,"date":"December 28, 2021","path":"/laravel-permission","summary":"","tags":[{"title":"laravel"}]}},{"node":{"title":"Laravel Cashier Paddle","timeToRead":1,"date":"December 28, 2021","path":"/cashier-paddle","summary":"","tags":[{"title":"laravel"}]}},{"node":{"title":"Laraval Digital Ocean Deploy","timeToRead":1,"date":"December 20, 2021","path":"/laravel-digital-ocean","summary":"Laravel deployment to digital ocean","tags":[{"title":"laravel"},{"title":"deploy"}]}}]}}},"context":{}}