{"hash":"ece809f0d3495ad4bfd232583ed634c3724a3bca","data":{"posts":{"totalCount":7,"pageInfo":{"totalPages":3,"currentPage":3},"edges":[{"node":{"id":"378869f04219ee64ff28f6c9899a600d","title":"Mac Pro 2019 Review","date":"March 11, 2019","summary":"Lorem ipsum dolor sit amet consectetur adipisicing elit. Hic rerum earum quos explicabo suscipit maxime iste qui nihil. Reiciendis asperiores minus necessitatibus","timeToRead":1,"path":"/mac-pro-2019-review"}}]}},"context":{}}