{"hash":"6c316d70fe0ad2efc23e081850279b8bd7869fbb","data":{"posts":{"totalCount":6,"pageInfo":{"totalPages":2,"currentPage":2},"edges":[{"node":{"id":"7619d0a9f84ee79d62db906140503580","title":"Top 5 Static Site Generators in Vue","date":"April 3, 2019","summary":"Lorem ipsum dolor sit amet consectetur adipisicing elit. Hic rerum earum quos explicabo suscipit maxime iste qui nihil. Reiciendis asperiores minus necessitatibus","timeToRead":1,"path":"/top-5-static-site-generators-in-vue"}},{"node":{"id":"0ef6697996d618491f708cd655f959c1","title":"Vue vs React Comparison","date":"March 27, 2019","summary":"Lorem ipsum dolor sit amet consectetur adipisicing elit. Hic rerum earum quos explicabo suscipit maxime iste qui nihil. Reiciendis asperiores minus necessitatibus","timeToRead":1,"path":"/vue-vs-react-comparison"}},{"node":{"id":"83a6db9029dcd194bfe0cb473dc7b737","title":"What I Ate for Breakfast","date":"March 21, 2019","summary":"Lorem ipsum dolor sit amet consectetur adipisicing elit. Hic rerum earum quos explicabo suscipit maxime iste qui nihil. Reiciendis asperiores minus necessitatibus","timeToRead":1,"path":"/what-i-ate-for-breakfast"}}]}},"context":{}}