{"hash":"d7ecfdcc7c22f82421c301a45f90fd678bc3a1ed","data":{"tag":{"title":"laravel","belongsTo":{"totalCount":4,"pageInfo":{"totalPages":2,"currentPage":2},"edges":[{"node":{"title":"Laravel Role Permission","timeToRead":1,"date":"December 15, 2021","path":"/laravel-role-permission","summary":"Role permission","tags":[{"title":"laravel"},{"title":"permission"}]}}]}}},"context":{}}